single_img_test.vcd
$date
	Tue Sep  9 22:37:57 2025
$end
$version
	Icarus Verilog
$end
$timescale
	1ps
$end
$scope module tb_single_img $end
$var wire 4 ! pred_digit [3:0] $end
$var wire 1 " done $end
$var parameter 32 # EXPECTED_DIGIT $end
$var parameter 176 $ IMG_FILE $end
$var parameter 32 % TEST_IMG_IDX $end
$var reg 1 & clk $end
$var reg 6272 ' img_data [6271:0] $end
$var reg 1 ( rst $end
$var reg 1 ) start $end
$var integer 32 * cycle_count [31:0] $end
$var real 1 + end_time $end
$var integer 32 , i [31:0] $end
$var real 1 - start_time $end
$scope module dut $end
$var wire 1 & clk $end
$var wire 6272 . img_data [6271:0] $end
$var wire 4 / pred_digit [3:0] $end
$var wire 1 ( rst $end
$var wire 1 ) start $end
$var wire 10 0 row_idx [9:0] $end
$var wire 1 1 mac_en_l2 $end
$var wire 1 2 mac_en_l1 $end
$var wire 1 3 mac_clr_l2 $end
$var wire 1 4 mac_clr_l1 $end
$var wire 1 5 load_img $end
$var wire 2 6 layer_sel [1:0] $end
$var wire 1 7 find_max $end
$var wire 1 " done $end
$var wire 10 8 cycle_cnt [9:0] $end
$var wire 8 9 curr_pixel [7:0] $end
$var wire 8 : curr_act [7:0] $end
$var wire 1 ; comp_l2 $end
$var wire 1 < comp_l1 $end
$var wire 1 = busy $end
$var wire 4 > argmax_comb [3:0] $end
$var wire 1 ? apply_relu $end
$var parameter 32 @ HID_SIZE $end
$var parameter 32 A IMG_SIZE $end
$var parameter 32 B OUT_SIZE $end
$var reg 4 C argmax_idx [3:0] $end
$var reg 1 D l1_bias_done $end
$var reg 1 E l2_bias_done $end
$var reg 1 F mac_l1_init_bias $end
$var reg 1 G mac_l2_init_bias $end
$var reg 1 H prev_apply_relu $end
$var integer 32 I i [31:0] $end
$scope module argmax $end
$var wire 4 J max_idx [3:0] $end
$var reg 4 K computed_idx [3:0] $end
$var reg 20 L max_val [19:0] $end
$upscope $end
$scope module fsm $end
$var wire 1 & clk $end
$var wire 1 ( rst $end
$var wire 1 ) start $end
$var parameter 4 M ARGMAX $end
$var parameter 4 N DONE $end
$var parameter 4 O IDLE $end
$var parameter 4 P INIT $end
$var parameter 4 Q L1_COMP $end
$var parameter 4 R L1_RELU $end
$var parameter 4 S L2_COMP $end
$var parameter 4 T LOAD_IMG $end
$var reg 1 ? apply_relu $end
$var reg 1 = busy $end
$var reg 1 < comp_l1 $end
$var reg 1 ; comp_l2 $end
$var reg 10 U cycle_cnt [9:0] $end
$var reg 1 " done $end
$var reg 1 7 find_max $end
$var reg 2 V layer_sel [1:0] $end
$var reg 1 5 load_img $end
$var reg 1 4 mac_clr_l1 $end
$var reg 1 3 mac_clr_l2 $end
$var reg 1 2 mac_en_l1 $end
$var reg 1 1 mac_en_l2 $end
$var reg 4 W next_state [3:0] $end
$var reg 10 X row_idx [9:0] $end
$var reg 4 Y state [3:0] $end
$upscope $end
$scope module mac_l1 $end
$var wire 1 & clk $end
$var wire 1 4 clr $end
$var wire 1 2 en $end
$var wire 1 F init_bias $end
$var wire 8 Z pixel [7:0] $end
$var wire 1 ( rst $end
$var integer 32 [ i [31:0] $end
$upscope $end
$scope module mac_l2 $end
$var wire 8 \ activation [7:0] $end
$var wire 1 & clk $end
$var wire 1 3 clr $end
$var wire 1 1 en $end
$var wire 1 G init_bias $end
$var wire 1 ( rst $end
$var integer 32 ] i [31:0] $end
$upscope $end
$scope module memory $end
$var wire 1 & clk $end
$var wire 2 ^ layer_sel [1:0] $end
$var wire 10 _ row_idx [9:0] $end
$var wire 1 ( rst $end
$var wire 9 ` w2_base_addr [8:0] $end
$var wire 15 a w1_base_addr [14:0] $end
$var integer 32 b i [31:0] $end
$upscope $end
$scope module relu $end
$var wire 1 & clk $end
$var wire 1 ? en $end
$var wire 1 ( rst $end
$var integer 32 c i [31:0] $end
$upscope $end
$upscope $end
$upscope $end
$enddefinitions $end
$comment Show the parameter values. $end
$dumpall
b10 T
b101 S
b100 R
b11 Q
b1 P
b0 O
b111 N
b110 M
b1010 B
b1100010000 A
b100000 @
b0 %
b1100100011000010111010001100001010111110110110101100101011011010010111101110100011001010111001101110100010111110110100101101101011001110011000000101110011011010110010101101101 $
b110 #
$end
#0
$dumpvars
bx c
b1010 b
bx a
bx `
bx _
bx ^
bx ]
bx \
bx [
bx Z
bx Y
bx X
b0 W
bx V
bx U
bx L
bx K
bx J
bx I
xH
xG
xF
xE
xD
bx C
x?
bx >
x=
x<
x;
bx :
bx 9
bx 8
x7
bx 6
x5
x4
x3
x2
x1
bx 0
bx /
b0 .
r0 -
bx ,
r0 +
b0 *
0)
1(
b0 '
0&
x"
bx !
$end
#5000
b0 `
b0 :
b0 \
b0 9
b0 Z
b1010 b
b0 >
b0 J
b0 K
b0 L
b0 Y
b0 8
b0 U
07
0;
0?
0<
05
03
01
04
02
b0 a
b0 0
b0 X
b0 _
b0 6
b0 V
b0 ^
0=
0"
0E
0D
0G
0F
b0 !
b0 /
b0 C
b100000 [
b100000 c
b1010 ]
b1100010000 I
1&
#10000
0&
#15000
0H
b100000 I
b1010 ]
b100000 c
b100000 [
1&
#20000
0&
#25000
b100000 [
b100000 c
b1010 ]
b1100010000 I
1&
#30000
0&
#35000
b100000 I
b1010 ]
b100000 c
b100000 [
1&
#40000
0&
#45000
b100000 [
b100000 c
b1010 ]
b1100010000 I
1&
#50000
0&
#55000
b100000 I
b1010 ]
b100000 c
b100000 [
1&
#60000
0&
#65000
b100000 [
b100000 c
b1010 ]
b1100010000 I
1&
#70000
0&
#75000
b100000 I
b1010 ]
b100000 c
b100000 [
1&
#80000
0&
#85000
b100000 [
b100000 c
b1010 ]
b1100010000 I
1&
#90000
0&
#95000
b100000 I
b1010 ]
b100000 c
b100000 [
1&
#100000
0&
0(
#105000
1&
#110000
0&
#115000
1&
#120000
0&
r120 -
b100100000001111100011010100010010100000000000000000000000000000000000000000000000000000000000000000000000000000000000000000000000000000000000000000000000000000000000000000000000000000000000000000000000000000000000000000100101001111111011111110111111101111010011001100010101000000000000000000000000000000000000000000000000000000000000000000000000000000000000000000000000000000000000000000000000000000000000000000000000000000000000000000011011001111001011111110111111101111111011111110111111101111110001111100000010000000000000000000000000000000000000000000000000000000000000000000000000000000000000000000000000000000000000000000000000000000000000000110100111101111111011111110111111101111111011111110111111101111111011111110111111100010111000000000000000000000000000000000000000000000000000000000000000000000000000000000000000000000000000000000000000000000000000000000001000001111111011111110100110101001000011111110111111101011010001000110111110101111111011001010000000000000000000000000000000000000000000000000000000000000000000000000000000000000000000000000000000000000000000000000000000001011110011111110100101000001001011001010111111101111010000011000000000001010100011111110111101000010101000000000000000000000000000000000000000000000000000000000000000000000000000000000000000000000000000000000000000000011011011111100111111100101000011010100111111101111010001110110000000000000000001101010111111101111111000111010000000000000000000000000000000000000000000000000000000000000000000000000000000000000000000000000000000000000000000111000111111101111111011101110111111101111111001111000000000000000000000000000101110001111111011111110001110100000000000000000000000000000000000000000000000000000000000000000000000000000000000000000000000000000000000000000000100101110010011111110111111101111111010100110000001000000000000000000000000001100100011111110111001000001001000000000000000000000000000000000000000000000000000000000000000000000000000000000000000000000000000000000000000000000000001000010111100001110001010011100000001000000000000000000000000000010100011111010111111100110110000000000000000000000000000000000000000000000000000000000000000000000000000000000000000000000000000000000000000000000000000000000000000000010001000010100000000000000000000000000000000000000000000110000111111101111111000011000000000000000000000000000000000000000000000000000000000000000000000000000000000000000000000000000000000000000000000000000000000000000000000000000000000000000000000000000000000000000000000000000110011001111111011101000000100000000000000000000000000000000000000000000000000000000000000000000000000000000000000000000000000000000000000000000000000000000000000000000000000000000000000000000000000000000000000000000001010101111011011111110100000100000000000000000000000000000000000000000000000000000000000000000000000000000000000000000000000000000000000000000000000000000000000000000000000000000000000000000000000000000000000000000000000000111011011111110111101000001001000000000000000000000000000000000000000000000000000000000000000000000000000000000000000000000000000000000000000000000000000000000000000000000000000000000000000000000000000000000000000000100111011111110111111100101011000000000000000000000000000000000000000000000000000000000000000000000000000000000000000000000000000000000000000000000000000000000000000000000000000000000000000000000000000000000000000000000011011001100111111101101100000000110000000000000000000000000000000000000000000000000000000000000000000000000000000000000000000000000000000000000000000000000000000000000000000000000000000000000000000000000000000000000000001010110111111101111110001100100000000000000000000000000000000000000000000000000000000000000000000000000000000000000000000000000000000000000000000000000000000000000000000000000000000000000000000000000000000000000000000110100110101101111111010011000000000000000000000000000000000000000000000000000000000000000000000000000000000000000000000000000000000000000000000000000000000000000000000000000000000000000000000000000000000000000000000000000100000101111111011000000000010100000000000000000000000000000000000000000000000000000000000000000000000000000000000000000000000000000000000000000000000000000000000000000000000000000000000000000000000000000000000000000000000001011001010110110001001000000000000000000000000000000000000000000000000000000000000000000000000000000000000000000000000000000000000000000000000000000000000000000000000000000000000000000000000000000000000000000000000000000000000000000000000000000000000000000000000000000000000000000000000000000000000000000000000000000000000000000000000000000000000000000000000000000000000000000000000000000000000000000000000000000000000000000000000000000000000000000000000000000000000000000000000000000000000000000000000000000000000000000000000000000000000000000000000000000000000000000000000000000000 '
b100100000001111100011010100010010100000000000000000000000000000000000000000000000000000000000000000000000000000000000000000000000000000000000000000000000000000000000000000000000000000000000000000000000000000000000000000100101001111111011111110111111101111010011001100010101000000000000000000000000000000000000000000000000000000000000000000000000000000000000000000000000000000000000000000000000000000000000000000000000000000000000000000011011001111001011111110111111101111111011111110111111101111110001111100000010000000000000000000000000000000000000000000000000000000000000000000000000000000000000000000000000000000000000000000000000000000000000000110100111101111111011111110111111101111111011111110111111101111111011111110111111100010111000000000000000000000000000000000000000000000000000000000000000000000000000000000000000000000000000000000000000000000000000000000001000001111111011111110100110101001000011111110111111101011010001000110111110101111111011001010000000000000000000000000000000000000000000000000000000000000000000000000000000000000000000000000000000000000000000000000000000001011110011111110100101000001001011001010111111101111010000011000000000001010100011111110111101000010101000000000000000000000000000000000000000000000000000000000000000000000000000000000000000000000000000000000000000000011011011111100111111100101000011010100111111101111010001110110000000000000000001101010111111101111111000111010000000000000000000000000000000000000000000000000000000000000000000000000000000000000000000000000000000000000000000111000111111101111111011101110111111101111111001111000000000000000000000000000101110001111111011111110001110100000000000000000000000000000000000000000000000000000000000000000000000000000000000000000000000000000000000000000000100101110010011111110111111101111111010100110000001000000000000000000000000001100100011111110111001000001001000000000000000000000000000000000000000000000000000000000000000000000000000000000000000000000000000000000000000000000000001000010111100001110001010011100000001000000000000000000000000000010100011111010111111100110110000000000000000000000000000000000000000000000000000000000000000000000000000000000000000000000000000000000000000000000000000000000000000000010001000010100000000000000000000000000000000000000000000110000111111101111111000011000000000000000000000000000000000000000000000000000000000000000000000000000000000000000000000000000000000000000000000000000000000000000000000000000000000000000000000000000000000000000000000000000110011001111111011101000000100000000000000000000000000000000000000000000000000000000000000000000000000000000000000000000000000000000000000000000000000000000000000000000000000000000000000000000000000000000000000000000001010101111011011111110100000100000000000000000000000000000000000000000000000000000000000000000000000000000000000000000000000000000000000000000000000000000000000000000000000000000000000000000000000000000000000000000000000000111011011111110111101000001001000000000000000000000000000000000000000000000000000000000000000000000000000000000000000000000000000000000000000000000000000000000000000000000000000000000000000000000000000000000000000000100111011111110111111100101011000000000000000000000000000000000000000000000000000000000000000000000000000000000000000000000000000000000000000000000000000000000000000000000000000000000000000000000000000000000000000000000011011001100111111101101100000000110000000000000000000000000000000000000000000000000000000000000000000000000000000000000000000000000000000000000000000000000000000000000000000000000000000000000000000000000000000000000000001010110111111101111110001100100000000000000000000000000000000000000000000000000000000000000000000000000000000000000000000000000000000000000000000000000000000000000000000000000000000000000000000000000000000000000000000110100110101101111111010011000000000000000000000000000000000000000000000000000000000000000000000000000000000000000000000000000000000000000000000000000000000000000000000000000000000000000000000000000000000000000000000000000100000101111111011000000000010100000000000000000000000000000000000000000000000000000000000000000000000000000000000000000000000000000000000000000000000000000000000000000000000000000000000000000000000000000000000000000000000001011001010110110001001000000000000000000000000000000000000000000000000000000000000000000000000000000000000000000000000000000000000000000000000000000000000000000000000000000000000000000000000000000000000000000000000000000000000000000000000000000000000000000000000000000000000000000000000000000000000000000000000000000000000000000000000000000000000000000000000000000000000000000000000000000000000000000000000000000000000000000000000000000000000000000000000000000000000000000000000000000000000000000000000000000000000000000000000000000000000000000000000000000000000000000000000000000000 .
b1100010000 ,
#125000
b1 W
1)
1&
#130000
0&
#135000
b1 Y
b10 W
0)
1&
#140000
0&
#145000
b10 Y
13
14
1=
b1 *
1&
#150000
0&
#155000
b100000 b
b1 8
b1 U
15
b1 6
b1 V
b1 ^
03
04
b10 *
b1010 ]
b100000 [
1&
#160000
0&
#165000
b11 W
b10 8
b10 U
05
b1100010000 I
b11 *
1&
#170000
0&
#175000
b0 8
b0 U
b11 Y
b100 *
1&
#180000
0&
#185000
b1 8
b1 U
1<
b101 *
1&
#190000
0&
#195000
1F
b10 8
b10 U
b110 *
1&
#200000
0&
#205000
b11 8
b11 U
12
1D
b100000 [
b111 *
1&
#210000
0&
#215000
b100000 b
b1010 `
0F
b100 8
b100 U
b100000 a
b1 0
b1 X
b1 _
b1000 *
b100000 [
1&
#220000
0&
#225000
b100000 b
b10100 `
b101 8
b101 U
b1000000 a
b10 0
b10 X
b10 _
b100000 [
b1001 *
1&
#230000
0&
#235000
b100000 b
b11110 `
b110 8
b110 U
b1100000 a
b11 0
b11 X
b11 _
b1010 *
b100000 [
1&
#240000
0&
#245000
b100000 b
b101000 `
b111 8
b111 U
b10000000 a
b100 0
b100 X
b100 _
b100000 [
b1011 *
1&
#250000
0&
#255000
b100000 b
b110010 `
b1000 8
b1000 U
b10100000 a
b101 0
b101 X
b101 _
b1100 *
b100000 [
1&
#260000
0&
#265000
b100000 b
b111100 `
b1001 8
b1001 U
b11000000 a
b110 0
b110 X
b110 _
b100000 [
b1101 *
1&
#270000
0&
#275000
b100000 b
b1000110 `
b1010 8
b1010 U
b11100000 a
b111 0
b111 X
b111 _
b1110 *
b100000 [
1&
#280000
0&
#285000
b100000 b
b1010000 `
b1011 8
b1011 U
b100000000 a
b1000 0
b1000 X
b1000 _
b100000 [
b1111 *
1&
#290000
0&
#295000
b100000 b
b1011010 `
b1100 8
b1100 U
b100100000 a
b1001 0
b1001 X
b1001 _
b10000 *
b100000 [
1&
#300000
0&
#305000
b100000 b
b1100100 `
b1101 8
b1101 U
b101000000 a
b1010 0
b1010 X
b1010 _
b100000 [
b10001 *
1&
#310000
0&
#315000
b100000 b
b1101110 `
b1110 8
b1110 U
b101100000 a
b1011 0
b1011 X
b1011 _
b10010 *
b100000 [
1&
#320000
0&
#325000
b100000 b
b1111000 `
b1111 8
b1111 U
b110000000 a
b1100 0
b1100 X
b1100 _
b100000 [
b10011 *
1&
#330000
0&
#335000
b100000 b
b10000010 `
b10000 8
b10000 U
b110100000 a
b1101 0
b1101 X
b1101 _
b10100 *
b100000 [
1&
#340000
0&
#345000
b100000 b
b10001100 `
b10001 8
b10001 U
b111000000 a
b1110 0
b1110 X
b1110 _
b100000 [
b10101 *
1&
#350000
0&
#355000
b100000 b
b10010110 `
b10010 8
b10010 U
b111100000 a
b1111 0
b1111 X
b1111 _
b10110 *
b100000 [
1&
#360000
0&
#365000
b100000 b
b10100000 `
b10011 8
b10011 U
b1000000000 a
b10000 0
b10000 X
b10000 _
b100000 [
b10111 *
1&
#370000
0&
#375000
b100000 b
b10101010 `
b10100 8
b10100 U
b1000100000 a
b10001 0
b10001 X
b10001 _
b11000 *
b100000 [
1&
#380000
0&
#385000
b100000 b
b10110100 `
b10101 8
b10101 U
b1001000000 a
b10010 0
b10010 X
b10010 _
b100000 [
b11001 *
1&
#390000
0&
#395000
b100000 b
b10111110 `
b10110 8
b10110 U
b1001100000 a
b10011 0
b10011 X
b10011 _
b11010 *
b100000 [
1&
#400000
0&
#405000
b100000 b
b11001000 `
b10111 8
b10111 U
b1010000000 a
b10100 0
b10100 X
b10100 _
b100000 [
b11011 *
1&
#410000
0&
#415000
b100000 b
b11010010 `
b11000 8
b11000 U
b1010100000 a
b10101 0
b10101 X
b10101 _
b11100 *
b100000 [
1&
#420000
0&
#425000
b100000 b
b11011100 `
b11001 8
b11001 U
b1011000000 a
b10110 0
b10110 X
b10110 _
b100000 [
b11101 *
1&
#430000
0&
#435000
b100000 b
b11100110 `
b11010 8
b11010 U
b1011100000 a
b10111 0
b10111 X
b10111 _
b11110 *
b100000 [
1&
#440000
0&
#445000
b100000 b
b11110000 `
b11011 8
b11011 U
b1100000000 a
b11000 0
b11000 X
b11000 _
b100000 [
b11111 *
1&
#450000
0&
#455000
b100000 b
b11111010 `
b11100 8
b11100 U
b1100100000 a
b11001 0
b11001 X
b11001 _
b100000 *
b100000 [
1&
#460000
0&
#465000
b100000 b
b100000100 `
b11101 8
b11101 U
b1101000000 a
b11010 0
b11010 X
b11010 _
b100000 [
b100001 *
1&
#470000
0&
#475000
b100000 b
b100001110 `
b11110 8
b11110 U
b1101100000 a
b11011 0
b11011 X
b11011 _
b100010 *
b100000 [
1&
#480000
0&
#485000
b100000 b
b100011000 `
b11111 8
b11111 U
b1110000000 a
b11100 0
b11100 X
b11100 _
b100000 [
b100011 *
1&
#490000
0&
#495000
b100000 b
b100100010 `
b100000 8
b100000 U
b1110100000 a
b11101 0
b11101 X
b11101 _
b100100 *
b100000 [
1&
#500000
0&
#505000
b100000 b
b100101100 `
b100001 8
b100001 U
b1111000000 a
b11110 0
b11110 X
b11110 _
b100000 [
b100101 *
1&
#510000
0&
#515000
b100000 b
b100110110 `
b100010 8
b100010 U
b1111100000 a
b11111 0
b11111 X
b11111 _
b100110 *
b100000 [
1&
#520000
0&
#525000
b100000 b
b101000000 `
b100011 8
b100011 U
b10000000000 a
b100000 0
b100000 X
b100000 _
b100000 [
b100111 *
1&
#530000
0&
#535000
b100000 b
b101001010 `
b100100 8
b100100 U
b10000100000 a
b100001 0
b100001 X
b100001 _
b101000 *
b100000 [
1&
#540000
0&
#545000
b100000 b
b101010100 `
b100101 8
b100101 U
b10001000000 a
b100010 0
b100010 X
b100010 _
b100000 [
b101001 *
1&
#550000
0&
#555000
b100000 b
b101011110 `
b100110 8
b100110 U
b10001100000 a
b100011 0
b100011 X
b100011 _
b101010 *
b100000 [
1&
#560000
0&
#565000
b100000 b
b101101000 `
b100111 8
b100111 U
b10010000000 a
b100100 0
b100100 X
b100100 _
b100000 [
b101011 *
1&
#570000
0&
#575000
b100000 b
b101110010 `
b101000 8
b101000 U
b10010100000 a
b100101 0
b100101 X
b100101 _
b101100 *
b100000 [
1&
#580000
0&
#585000
b100000 b
b101111100 `
b101001 8
b101001 U
b10011000000 a
b100110 0
b100110 X
b100110 _
b100000 [
b101101 *
1&
#590000
0&
#595000
b100000 b
b110000110 `
b101010 8
b101010 U
b10011100000 a
b100111 0
b100111 X
b100111 _
b101110 *
b100000 [
1&
#600000
0&
#605000
b100000 b
b110010000 `
b101011 8
b101011 U
b10100000000 a
b101000 0
b101000 X
b101000 _
b100000 [
b101111 *
1&
#610000
0&
#615000
b100000 b
b110011010 `
b101100 8
b101100 U
b10100100000 a
b101001 0
b101001 X
b101001 _
b110000 *
b100000 [
1&
#620000
0&
#625000
b100000 b
b110100100 `
b101101 8
b101101 U
b10101000000 a
b101010 0
b101010 X
b101010 _
b100000 [
b110001 *
1&
#630000
0&
#635000
b100000 b
b110101110 `
b101110 8
b101110 U
b10101100000 a
b101011 0
b101011 X
b101011 _
b110010 *
b100000 [
1&
#640000
0&
#645000
b100000 b
b110111000 `
b101111 8
b101111 U
b10110000000 a
b101100 0
b101100 X
b101100 _
b100000 [
b110011 *
1&
#650000
0&
#655000
b100000 b
b111000010 `
b110000 8
b110000 U
b10110100000 a
b101101 0
b101101 X
b101101 _
b110100 *
b100000 [
1&
#660000
0&
#665000
b100000 b
b111001100 `
b110001 8
b110001 U
b10111000000 a
b101110 0
b101110 X
b101110 _
b100000 [
b110101 *
1&
#670000
0&
#675000
b100000 b
b111010110 `
b110010 8
b110010 U
b10111100000 a
b101111 0
b101111 X
b101111 _
b110110 *
b100000 [
1&
#680000
0&
#685000
b100000 b
b111100000 `
b110011 8
b110011 U
b11000000000 a
b110000 0
b110000 X
b110000 _
b100000 [
b110111 *
1&
#690000
0&
#695000
b100000 b
b111101010 `
b110100 8
b110100 U
b11000100000 a
b110001 0
b110001 X
b110001 _
b111000 *
b100000 [
1&
#700000
0&
#705000
b100000 b
b111110100 `
b110101 8
b110101 U
b11001000000 a
b110010 0
b110010 X
b110010 _
b100000 [
b111001 *
1&
#710000
0&
#715000
b100000 b
b111111110 `
b110110 8
b110110 U
b11001100000 a
b110011 0
b110011 X
b110011 _
b111010 *
b100000 [
1&
#720000
0&
#725000
b100000 b
b1000 `
b110111 8
b110111 U
b11010000000 a
b110100 0
b110100 X
b110100 _
b100000 [
b111011 *
1&
#730000
0&
#735000
b100000 b
b10010 `
b111000 8
b111000 U
b11010100000 a
b110101 0
b110101 X
b110101 _
b111100 *
b100000 [
1&
#740000
0&
#745000
b100000 b
b11100 `
b111001 8
b111001 U
b11011000000 a
b110110 0
b110110 X
b110110 _
b100000 [
b111101 *
1&
#750000
0&
#755000
b100000 b
b100110 `
b111010 8
b111010 U
b11011100000 a
b110111 0
b110111 X
b110111 _
b111110 *
b100000 [
1&
#760000
0&
#765000
b100000 b
b110000 `
b111011 8
b111011 U
b11100000000 a
b111000 0
b111000 X
b111000 _
b100000 [
b111111 *
1&
#770000
0&
#775000
b100000 b
b111010 `
b111100 8
b111100 U
b11100100000 a
b111001 0
b111001 X
b111001 _
b1000000 *
b100000 [
1&
#780000
0&
#785000
b100000 b
b1000100 `
b111101 8
b111101 U
b11101000000 a
b111010 0
b111010 X
b111010 _
b100000 [
b1000001 *
1&
#790000
0&
#795000
b100000 b
b1001110 `
b111110 8
b111110 U
b11101100000 a
b111011 0
b111011 X
b111011 _
b1000010 *
b100000 [
1&
#800000
0&
#805000
b100000 b
b1011000 `
b111111 8
b111111 U
b11110000000 a
b111100 0
b111100 X
b111100 _
b100000 [
b1000011 *
1&
#810000
0&
#815000
b100000 b
b1100010 `
b1000000 8
b1000000 U
b11110100000 a
b111101 0
b111101 X
b111101 _
b1000100 *
b100000 [
1&
#820000
0&
#825000
b100000 b
b1101100 `
b1000001 8
b1000001 U
b11111000000 a
b111110 0
b111110 X
b111110 _
b100000 [
b1000101 *
1&
#830000
0&
#835000
b100000 b
b1110110 `
b1000010 8
b1000010 U
b11111100000 a
b111111 0
b111111 X
b111111 _
b1000110 *
b100000 [
1&
#840000
0&
#845000
b100000 b
b10000000 `
b1000011 8
b1000011 U
b100000000000 a
b1000000 0
b1000000 X
b1000000 _
b100000 [
b1000111 *
1&
#850000
0&
#855000
b100000 b
b10001010 `
b1000100 8
b1000100 U
b100000100000 a
b1000001 0
b1000001 X
b1000001 _
b1001000 *
b100000 [
1&
#860000
0&
#865000
b100000 b
b10010100 `
b1000101 8
b1000101 U
b100001000000 a
b1000010 0
b1000010 X
b1000010 _
b100000 [
b1001001 *
1&
#870000
0&
#875000
b100000 b
b10011110 `
b1000110 8
b1000110 U
b100001100000 a
b1000011 0
b1000011 X
b1000011 _
b1001010 *
b100000 [
1&
#880000
0&
#885000
b100000 b
b10101000 `
b1000111 8
b1000111 U
b100010000000 a
b1000100 0
b1000100 X
b1000100 _
b100000 [
b1001011 *
1&
#890000
0&
#895000
b100000 b
b10110010 `
b1001000 8
b1001000 U
b100010100000 a
b1000101 0
b1000101 X
b1000101 _
b1001100 *
b100000 [
1&
#900000
0&
#905000
b100000 b
b10111100 `
b10010 9
b10010 Z
b1001001 8
b1001001 U
b100011000000 a
b1000110 0
b1000110 X
b1000110 _
b100000 [
b1001101 *
1&
#910000
0&
#915000
b100000 b
b11000110 `
b1011011 9
b1011011 Z
b1001010 8
b1001010 U
b100011100000 a
b1000111 0
b1000111 X
b1000111 _
b1001110 *
b100000 [
1&
#920000
0&
#925000
b100000 b
b11010000 `
b1011001 9
b1011001 Z
b1001011 8
b1001011 U
b100100000000 a
b1001000 0
b1001000 X
b1001000 _
b100000 [
b1001111 *
1&
#930000
0&
#935000
b100000 b
b11011010 `
b0 9
b0 Z
b1001100 8
b1001100 U
b100100100000 a
b1001001 0
b1001001 X
b1001001 _
b1010000 *
b100000 [
1&
#940000
0&
#945000
b100000 b
b11100100 `
b1001101 8
b1001101 U
b100101000000 a
b1001010 0
b1001010 X
b1001010 _
b100000 [
b1010001 *
1&
#950000
0&
#955000
b100000 b
b11101110 `
b1001110 8
b1001110 U
b100101100000 a
b1001011 0
b1001011 X
b1001011 _
b1010010 *
b100000 [
1&
#960000
0&
#965000
b100000 b
b11111000 `
b1001111 8
b1001111 U
b100110000000 a
b1001100 0
b1001100 X
b1001100 _
b100000 [
b1010011 *
1&
#970000
0&
#975000
b100000 b
b100000010 `
b1010000 8
b1010000 U
b100110100000 a
b1001101 0
b1001101 X
b1001101 _
b1010100 *
b100000 [
1&
#980000
0&
#985000
b100000 b
b100001100 `
b1010001 8
b1010001 U
b100111000000 a
b1001110 0
b1001110 X
b1001110 _
b100000 [
b1010101 *
1&
#990000
0&
#995000
b100000 b
b100010110 `
b1010010 8
b1010010 U
b100111100000 a
b1001111 0
b1001111 X
b1001111 _
b1010110 *
b100000 [
1&
#1000000
0&
#1005000
b100000 b
b100100000 `
b1010011 8
b1010011 U
b101000000000 a
b1010000 0
b1010000 X
b1010000 _
b100000 [
b1010111 *
1&
#1010000
0&
#1015000
b100000 b
b100101010 `
b1010100 8
b1010100 U
b101000100000 a
b1010001 0
b1010001 X
b1010001 _
b1011000 *
b100000 [
1&
#1020000
0&
#1025000
b100000 b
b100110100 `
b1010101 8
b1010101 U
b101001000000 a
b1010010 0
b1010010 X
b1010010 _
b100000 [
b1011001 *
1&
#1030000
0&
#1035000
b100000 b
b100111110 `
b1010110 8
b1010110 U
b101001100000 a
b1010011 0
b1010011 X
b1010011 _
b1011010 *
b100000 [
1&
#1040000
0&
#1045000
b100000 b
b101001000 `
b1010111 8
b1010111 U
b101010000000 a
b1010100 0
b1010100 X
b1010100 _
b100000 [
b1011011 *
1&
#1050000
0&
#1055000
b100000 b
b101010010 `
b1011000 8
b1011000 U
b101010100000 a
b1010101 0
b1010101 X
b1010101 _
b1011100 *
b100000 [
1&
#1060000
0&
#1065000
b100000 b
b101011100 `
b1011001 8
b1011001 U
b101011000000 a
b1010110 0
b1010110 X
b1010110 _
b100000 [
b1011101 *
1&
#1070000
0&
#1075000
b100000 b
b101100110 `
b1011010 8
b1011010 U
b101011100000 a
b1010111 0
b1010111 X
b1010111 _
b1011110 *
b100000 [
1&
#1080000
0&
#1085000
b100000 b
b101110000 `
b1011011 8
b1011011 U
b101100000000 a
b1011000 0
b1011000 X
b1011000 _
b100000 [
b1011111 *
1&
#1090000
0&
#1095000
b100000 b
b101111010 `
b1011100 8
b1011100 U
b101100100000 a
b1011001 0
b1011001 X
b1011001 _
b1100000 *
b100000 [
1&
#1100000
0&
#1105000
b100000 b
b110000100 `
b1011101 8
b1011101 U
b101101000000 a
b1011010 0
b1011010 X
b1011010 _
b100000 [
b1100001 *
1&
#1110000
0&
#1115000
b100000 b
b110001110 `
b1011110 8
b1011110 U
b101101100000 a
b1011011 0
b1011011 X
b1011011 _
b1100010 *
b100000 [
1&
#1120000
0&
#1125000
b100000 b
b110011000 `
b1011111 8
b1011111 U
b101110000000 a
b1011100 0
b1011100 X
b1011100 _
b100000 [
b1100011 *
1&
#1130000
0&
#1135000
b100000 b
b110100010 `
b1100000 8
b1100000 U
b101110100000 a
b1011101 0
b1011101 X
b1011101 _
b1100100 *
b100000 [
1&
#1140000
0&
#1145000
b100000 b
b110101100 `
b1100001 8
b1100001 U
b101111000000 a
b1011110 0
b1011110 X
b1011110 _
b100000 [
b1100101 *
1&
#1150000
0&
#1155000
b100000 b
b110110110 `
b1100010 8
b1100010 U
b101111100000 a
b1011111 0
b1011111 X
b1011111 _
b1100110 *
b100000 [
1&
#1160000
0&
#1165000
b100000 b
b111000000 `
b1100011 8
b1100011 U
b110000000000 a
b1100000 0
b1100000 X
b1100000 _
b100000 [
b1100111 *
1&
#1170000
0&
#1175000
b100000 b
b111001010 `
b101 9
b101 Z
b1100100 8
b1100100 U
b110000100000 a
b1100001 0
b1100001 X
b1100001 _
b1101000 *
b100000 [
1&
#1180000
0&
#1185000
b100000 b
b111010100 `
b1100000 9
b1100000 Z
b1100101 8
b1100101 U
b110001000000 a
b1100010 0
b1100010 X
b1100010 _
b100000 [
b1101001 *
1&
#1190000
0&
#1195000
b100000 b
b111011110 `
b1111111 9
b1111111 Z
b1100110 8
b1100110 U
b110001100000 a
b1100011 0
b1100011 X
b1100011 _
b1101010 *
b100000 [
1&
#1200000
0&
#1205000
b100000 b
b111101000 `
b1000001 9
b1000001 Z
b1100111 8
b1100111 U
b110010000000 a
b1100100 0
b1100100 X
b1100100 _
b100000 [
b1101011 *
1&
#1210000
0&
#1215000
b100000 b
b111110010 `
b0 9
b0 Z
b1101000 8
b1101000 U
b110010100000 a
b1100101 0
b1100101 X
b1100101 _
b1101100 *
b100000 [
1&
#1220000
0&
#1225000
b100000 b
b111111100 `
b1101001 8
b1101001 U
b110011000000 a
b1100110 0
b1100110 X
b1100110 _
b100000 [
b1101101 *
1&
#1230000
0&
#1235000
b100000 b
b110 `
b1101010 8
b1101010 U
b110011100000 a
b1100111 0
b1100111 X
b1100111 _
b1101110 *
b100000 [
1&
#1240000
0&
#1245000
b100000 b
b10000 `
b1101011 8
b1101011 U
b110100000000 a
b1101000 0
b1101000 X
b1101000 _
b100000 [
b1101111 *
1&
#1250000
0&
#1255000
b100000 b
b11010 `
b1101100 8
b1101100 U
b110100100000 a
b1101001 0
b1101001 X
b1101001 _
b1110000 *
b100000 [
1&
#1260000
0&
