synth_test.vcd
$date
	Tue Sep  9 22:43:45 2025
$end
$version
	Icarus Verilog
$end
$timescale
	1ps
$end
$scope module tb_synth_test $end
$var wire 1 ! valid $end
$var wire 1 " done $end
$var wire 4 # digit [3:0] $end
$var reg 1 $ clk $end
$var reg 2 % img_sel [1:0] $end
$var reg 1 & rst $end
$var reg 1 ' start $end
$var integer 32 ( test_cnt [31:0] $end
$scope module dut $end
$var wire 1 $ clk $end
$var wire 4 ) digit [3:0] $end
$var wire 2 * img_sel [1:0] $end
$var wire 1 & rst $end
$var wire 1 ' start $end
$var wire 1 ! valid $end
$var wire 4 + pred_digit [3:0] $end
$var wire 1 " done $end
$var parameter 32 , IMG_SIZE $end
$var parameter 32 - NUM_IMGS $end
$var reg 4 . exp_label [3:0] $end
$var reg 6272 / img_data [6271:0] $end
$var integer 32 0 i [31:0] $end
$scope module accel $end
$var wire 1 $ clk $end
$var wire 6272 1 img_data [6271:0] $end
$var wire 4 2 pred_digit [3:0] $end
$var wire 1 & rst $end
$var wire 1 3 start $end
$var wire 10 4 row_idx [9:0] $end
$var wire 1 5 mac_en_l2 $end
$var wire 1 6 mac_en_l1 $end
$var wire 1 7 mac_clr_l2 $end
$var wire 1 8 mac_clr_l1 $end
$var wire 1 9 load_img $end
$var wire 2 : layer_sel [1:0] $end
$var wire 1 ; find_max $end
$var wire 1 " done $end
$var wire 10 < cycle_cnt [9:0] $end
$var wire 8 = curr_pixel [7:0] $end
$var wire 8 > curr_act [7:0] $end
$var wire 1 ? comp_l2 $end
$var wire 1 @ comp_l1 $end
$var wire 1 A busy $end
$var wire 4 B argmax_comb [3:0] $end
$var wire 1 C apply_relu $end
$var parameter 32 D HID_SIZE $end
$var parameter 32 E IMG_SIZE $end
$var parameter 32 F OUT_SIZE $end
$var reg 4 G argmax_idx [3:0] $end
$var reg 1 H l1_bias_done $end
$var reg 1 I l2_bias_done $end
$var reg 1 J mac_l1_init_bias $end
$var reg 1 K mac_l2_init_bias $end
$var reg 1 L prev_apply_relu $end
$var integer 32 M i [31:0] $end
$scope module argmax $end
$var wire 4 N max_idx [3:0] $end
$var reg 4 O computed_idx [3:0] $end
$var reg 20 P max_val [19:0] $end
$upscope $end
$scope module fsm $end
$var wire 1 $ clk $end
$var wire 1 & rst $end
$var wire 1 3 start $end
$var parameter 4 Q ARGMAX $end
$var parameter 4 R DONE $end
$var parameter 4 S IDLE $end
$var parameter 4 T INIT $end
$var parameter 4 U L1_COMP $end
$var parameter 4 V L1_RELU $end
$var parameter 4 W L2_COMP $end
$var parameter 4 X LOAD_IMG $end
$var reg 1 C apply_relu $end
$var reg 1 A busy $end
$var reg 1 @ comp_l1 $end
$var reg 1 ? comp_l2 $end
$var reg 10 Y cycle_cnt [9:0] $end
$var reg 1 " done $end
$var reg 1 ; find_max $end
$var reg 2 Z layer_sel [1:0] $end
$var reg 1 9 load_img $end
$var reg 1 8 mac_clr_l1 $end
$var reg 1 7 mac_clr_l2 $end
$var reg 1 6 mac_en_l1 $end
$var reg 1 5 mac_en_l2 $end
$var reg 4 [ next_state [3:0] $end
$var reg 10 \ row_idx [9:0] $end
$var reg 4 ] state [3:0] $end
$upscope $end
$scope module mac_l1 $end
$var wire 1 $ clk $end
$var wire 1 8 clr $end
$var wire 1 6 en $end
$var wire 1 J init_bias $end
$var wire 8 ^ pixel [7:0] $end
$var wire 1 & rst $end
$var integer 32 _ i [31:0] $end
$upscope $end
$scope module mac_l2 $end
$var wire 8 ` activation [7:0] $end
$var wire 1 $ clk $end
$var wire 1 7 clr $end
$var wire 1 5 en $end
$var wire 1 K init_bias $end
$var wire 1 & rst $end
$var integer 32 a i [31:0] $end
$upscope $end
$scope module memory $end
$var wire 1 $ clk $end
$var wire 2 b layer_sel [1:0] $end
$var wire 10 c row_idx [9:0] $end
$var wire 1 & rst $end
$var wire 9 d w2_base_addr [8:0] $end
$var wire 15 e w1_base_addr [14:0] $end
$var parameter 120 f B1_FILE $end
$var parameter 120 g B2_FILE $end
$var parameter 120 h W1_FILE $end
$var parameter 120 i W2_FILE $end
$var integer 32 j i [31:0] $end
$upscope $end
$scope module relu $end
$var wire 1 $ clk $end
$var wire 1 C en $end
$var wire 1 & rst $end
$var integer 32 k i [31:0] $end
$upscope $end
$upscope $end
$upscope $end
$upscope $end
$enddefinitions $end
$comment Show the parameter values. $end
$dumpall
b11001000110000101110100011000010101111101101101011001010110110100101111011101110011001000101110011011010110010101101101 i
b11001000110000101110100011000010101111101101101011001010110110100101111011101110011000100101110011011010110010101101101 h
b11001000110000101110100011000010101111101101101011001010110110100101111011000100011001000101110011011010110010101101101 g
b11001000110000101110100011000010101111101101101011001010110110100101111011000100011000100101110011011010110010101101101 f
b10 X
b101 W
b100 V
b11 U
b1 T
b0 S
b111 R
b110 Q
b1010 F
b1100010000 E
b100000 D
b11 -
b1100010000 ,
$end
#0
$dumpvars
bx k
b1010 j
bx e
bx d
bx c
bx b
bx a
bx `
bx _
bx ^
bx ]
bx \
b0 [
bx Z
bx Y
bx P
bx O
bx N
bx M
xL
xK
xJ
xI
xH
bx G
xC
bx B
xA
x@
x?
bx >
bx =
bx <
x;
bx :
x9
x8
x7
x6
x5
bx 4
03
bx 2
bx 1
bx 0
bx /
bx .
bx +
b0 *
bx )
b0 (
0'
1&
b0 %
0$
bx #
x"
1!
$end
#5000
b0 d
b0 >
b0 `
b0 =
b0 ^
b1010 j
b0 B
b0 N
b0 O
b0 P
b0 ]
b0 <
b0 Y
0;
0?
0C
0@
09
07
05
08
06
b0 e
b0 4
b0 \
b0 c
b0 :
b0 Z
b0 b
0A
0"
0I
0H
0K
0J
b0 #
b0 )
b0 +
b0 2
b0 G
b0 .
b0 /
b0 1
b100000 _
b100000 k
b1010 a
b1100010000 M
1$
#10000
0$
#15000
0L
b100000 M
b1010 a
b100000 k
b100000 _
1$
#20000
0$
#25000
b100000 _
b100000 k
b1010 a
b1100010000 M
1$
#30000
0$
#35000
b100000 M
b1010 a
b100000 k
b100000 _
1$
#40000
0$
#45000
b100000 _
b100000 k
b1010 a
b1100010000 M
1$
#50000
0$
#55000
b100000 M
b1010 a
b100000 k
b100000 _
1$
#60000
0$
#65000
b100000 _
b100000 k
b1010 a
b1100010000 M
1$
#70000
0$
#75000
b100000 M
b1010 a
b100000 k
b100000 _
1$
#80000
0$
#85000
b100000 _
b100000 k
b1010 a
b1100010000 M
1$
#90000
0$
#95000
b100000 M
b1010 a
b100000 k
b100000 _
1$
#100000
0$
0&
#105000
1$
#110000
0$
#115000
1$
#120000
0$
#125000
1$
#130000
0$
#135000
b110 .
b100100000001111100011010100010010100000000000000000000000000000000000000000000000000000000000000000000000000000000000000000000000000000000000000000000000000000000000000000000000000000000000000000000000000000000000000000100101001111111011111110111111101111010011001100010101000000000000000000000000000000000000000000000000000000000000000000000000000000000000000000000000000000000000000000000000000000000000000000000000000000000000000000011011001111001011111110111111101111111011111110111111101111110001111100000010000000000000000000000000000000000000000000000000000000000000000000000000000000000000000000000000000000000000000000000000000000000000000110100111101111111011111110111111101111111011111110111111101111111011111110111111100010111000000000000000000000000000000000000000000000000000000000000000000000000000000000000000000000000000000000000000000000000000000000001000001111111011111110100110101001000011111110111111101011010001000110111110101111111011001010000000000000000000000000000000000000000000000000000000000000000000000000000000000000000000000000000000000000000000000000000000001011110011111110100101000001001011001010111111101111010000011000000000001010100011111110111101000010101000000000000000000000000000000000000000000000000000000000000000000000000000000000000000000000000000000000000000000011011011111100111111100101000011010100111111101111010001110110000000000000000001101010111111101111111000111010000000000000000000000000000000000000000000000000000000000000000000000000000000000000000000000000000000000000000000111000111111101111111011101110111111101111111001111000000000000000000000000000101110001111111011111110001110100000000000000000000000000000000000000000000000000000000000000000000000000000000000000000000000000000000000000000000100101110010011111110111111101111111010100110000001000000000000000000000000001100100011111110111001000001001000000000000000000000000000000000000000000000000000000000000000000000000000000000000000000000000000000000000000000000000001000010111100001110001010011100000001000000000000000000000000000010100011111010111111100110110000000000000000000000000000000000000000000000000000000000000000000000000000000000000000000000000000000000000000000000000000000000000000000010001000010100000000000000000000000000000000000000000000110000111111101111111000011000000000000000000000000000000000000000000000000000000000000000000000000000000000000000000000000000000000000000000000000000000000000000000000000000000000000000000000000000000000000000000000000000110011001111111011101000000100000000000000000000000000000000000000000000000000000000000000000000000000000000000000000000000000000000000000000000000000000000000000000000000000000000000000000000000000000000000000000000001010101111011011111110100000100000000000000000000000000000000000000000000000000000000000000000000000000000000000000000000000000000000000000000000000000000000000000000000000000000000000000000000000000000000000000000000000000111011011111110111101000001001000000000000000000000000000000000000000000000000000000000000000000000000000000000000000000000000000000000000000000000000000000000000000000000000000000000000000000000000000000000000000000100111011111110111111100101011000000000000000000000000000000000000000000000000000000000000000000000000000000000000000000000000000000000000000000000000000000000000000000000000000000000000000000000000000000000000000000000011011001100111111101101100000000110000000000000000000000000000000000000000000000000000000000000000000000000000000000000000000000000000000000000000000000000000000000000000000000000000000000000000000000000000000000000000001010110111111101111110001100100000000000000000000000000000000000000000000000000000000000000000000000000000000000000000000000000000000000000000000000000000000000000000000000000000000000000000000000000000000000000000000110100110101101111111010011000000000000000000000000000000000000000000000000000000000000000000000000000000000000000000000000000000000000000000000000000000000000000000000000000000000000000000000000000000000000000000000000000100000101111111011000000000010100000000000000000000000000000000000000000000000000000000000000000000000000000000000000000000000000000000000000000000000000000000000000000000000000000000000000000000000000000000000000000000000001011001010110110001001000000000000000000000000000000000000000000000000000000000000000000000000000000000000000000000000000000000000000000000000000000000000000000000000000000000000000000000000000000000000000000000000000000000000000000000000000000000000000000000000000000000000000000000000000000000000000000000000000000000000000000000000000000000000000000000000000000000000000000000000000000000000000000000000000000000000000000000000000000000000000000000000000000000000000000000000000000000000000000000000000000000000000000000000000000000000000000000000000000000000000000000000000000000 /
b100100000001111100011010100010010100000000000000000000000000000000000000000000000000000000000000000000000000000000000000000000000000000000000000000000000000000000000000000000000000000000000000000000000000000000000000000100101001111111011111110111111101111010011001100010101000000000000000000000000000000000000000000000000000000000000000000000000000000000000000000000000000000000000000000000000000000000000000000000000000000000000000000011011001111001011111110111111101111111011111110111111101111110001111100000010000000000000000000000000000000000000000000000000000000000000000000000000000000000000000000000000000000000000000000000000000000000000000110100111101111111011111110111111101111111011111110111111101111111011111110111111100010111000000000000000000000000000000000000000000000000000000000000000000000000000000000000000000000000000000000000000000000000000000000001000001111111011111110100110101001000011111110111111101011010001000110111110101111111011001010000000000000000000000000000000000000000000000000000000000000000000000000000000000000000000000000000000000000000000000000000000001011110011111110100101000001001011001010111111101111010000011000000000001010100011111110111101000010101000000000000000000000000000000000000000000000000000000000000000000000000000000000000000000000000000000000000000000011011011111100111111100101000011010100111111101111010001110110000000000000000001101010111111101111111000111010000000000000000000000000000000000000000000000000000000000000000000000000000000000000000000000000000000000000000000111000111111101111111011101110111111101111111001111000000000000000000000000000101110001111111011111110001110100000000000000000000000000000000000000000000000000000000000000000000000000000000000000000000000000000000000000000000100101110010011111110111111101111111010100110000001000000000000000000000000001100100011111110111001000001001000000000000000000000000000000000000000000000000000000000000000000000000000000000000000000000000000000000000000000000000001000010111100001110001010011100000001000000000000000000000000000010100011111010111111100110110000000000000000000000000000000000000000000000000000000000000000000000000000000000000000000000000000000000000000000000000000000000000000000010001000010100000000000000000000000000000000000000000000110000111111101111111000011000000000000000000000000000000000000000000000000000000000000000000000000000000000000000000000000000000000000000000000000000000000000000000000000000000000000000000000000000000000000000000000000000110011001111111011101000000100000000000000000000000000000000000000000000000000000000000000000000000000000000000000000000000000000000000000000000000000000000000000000000000000000000000000000000000000000000000000000000001010101111011011111110100000100000000000000000000000000000000000000000000000000000000000000000000000000000000000000000000000000000000000000000000000000000000000000000000000000000000000000000000000000000000000000000000000000111011011111110111101000001001000000000000000000000000000000000000000000000000000000000000000000000000000000000000000000000000000000000000000000000000000000000000000000000000000000000000000000000000000000000000000000100111011111110111111100101011000000000000000000000000000000000000000000000000000000000000000000000000000000000000000000000000000000000000000000000000000000000000000000000000000000000000000000000000000000000000000000000011011001100111111101101100000000110000000000000000000000000000000000000000000000000000000000000000000000000000000000000000000000000000000000000000000000000000000000000000000000000000000000000000000000000000000000000000001010110111111101111110001100100000000000000000000000000000000000000000000000000000000000000000000000000000000000000000000000000000000000000000000000000000000000000000000000000000000000000000000000000000000000000000000110100110101101111111010011000000000000000000000000000000000000000000000000000000000000000000000000000000000000000000000000000000000000000000000000000000000000000000000000000000000000000000000000000000000000000000000000000100000101111111011000000000010100000000000000000000000000000000000000000000000000000000000000000000000000000000000000000000000000000000000000000000000000000000000000000000000000000000000000000000000000000000000000000000000001011001010110110001001000000000000000000000000000000000000000000000000000000000000000000000000000000000000000000000000000000000000000000000000000000000000000000000000000000000000000000000000000000000000000000000000000000000000000000000000000000000000000000000000000000000000000000000000000000000000000000000000000000000000000000000000000000000000000000000000000000000000000000000000000000000000000000000000000000000000000000000000000000000000000000000000000000000000000000000000000000000000000000000000000000000000000000000000000000000000000000000000000000000000000000000000000000000 1
b1 [
13
b1100010000 0
1'
1$
#140000
0$
#145000
b1 ]
b10 [
03
0'
b1100010000 0
1$
#150000
0$
#155000
17
18
1A
b10 ]
1$
#160000
0$
#165000
b100000 j
b1 <
b1 Y
19
b1 :
b1 Z
b1 b
07
08
b100000 _
b1010 a
1$
#170000
0$
#175000
b11 [
b10 <
b10 Y
09
b1100010000 M
1$
#180000
0$
#185000
b11 ]
b0 <
b0 Y
1$
#190000
0$
#195000
b1 <
b1 Y
1@
1$
#200000
0$
#205000
b10 <
b10 Y
1J
1$
#210000
0$
#215000
1H
b11 <
b11 Y
16
b100000 _
1$
#220000
0$
#225000
b100000 j
b1010 d
b100 <
b100 Y
b100000 e
b1 4
b1 \
b1 c
0J
b100000 _
1$
#230000
0$
#235000
b100000 j
b10100 d
b101 <
b101 Y
b1000000 e
b10 4
b10 \
b10 c
b100000 _
1$
#240000
0$
#245000
b100000 j
b11110 d
b110 <
b110 Y
b1100000 e
b11 4
b11 \
b11 c
b100000 _
1$
#250000
0$
#255000
b100000 j
b101000 d
b111 <
b111 Y
b10000000 e
b100 4
b100 \
b100 c
b100000 _
1$
#260000
0$
#265000
b100000 j
b110010 d
b1000 <
b1000 Y
b10100000 e
b101 4
b101 \
b101 c
b100000 _
1$
#270000
0$
#275000
b100000 j
b111100 d
b1001 <
b1001 Y
b11000000 e
b110 4
b110 \
b110 c
b100000 _
1$
#280000
0$
#285000
b100000 j
b1000110 d
b1010 <
b1010 Y
b11100000 e
b111 4
b111 \
b111 c
b100000 _
1$
#290000
0$
#295000
b100000 j
b1010000 d
b1011 <
b1011 Y
b100000000 e
b1000 4
b1000 \
b1000 c
b100000 _
1$
#300000
0$
#305000
b100000 j
b1011010 d
b1100 <
b1100 Y
b100100000 e
b1001 4
b1001 \
b1001 c
b100000 _
1$
#310000
0$
#315000
b100000 j
b1100100 d
b1101 <
b1101 Y
b101000000 e
b1010 4
b1010 \
b1010 c
b100000 _
1$
#320000
0$
#325000
b100000 j
b1101110 d
b1110 <
b1110 Y
b101100000 e
b1011 4
b1011 \
b1011 c
b100000 _
1$
#330000
0$
#335000
b100000 j
b1111000 d
b1111 <
b1111 Y
b110000000 e
b1100 4
b1100 \
b1100 c
b100000 _
1$
#340000
0$
#345000
b100000 j
b10000010 d
b10000 <
b10000 Y
b110100000 e
b1101 4
b1101 \
b1101 c
b100000 _
1$
#350000
0$
#355000
b100000 j
b10001100 d
b10001 <
b10001 Y
b111000000 e
b1110 4
b1110 \
b1110 c
b100000 _
1$
#360000
0$
#365000
b100000 j
b10010110 d
b10010 <
b10010 Y
b111100000 e
b1111 4
b1111 \
b1111 c
b100000 _
1$
#370000
0$
#375000
b100000 j
b10100000 d
b10011 <
b10011 Y
b1000000000 e
b10000 4
b10000 \
b10000 c
b100000 _
1$
#380000
0$
#385000
b100000 j
b10101010 d
b10100 <
b10100 Y
b1000100000 e
b10001 4
b10001 \
b10001 c
b100000 _
1$
#390000
0$
#395000
b100000 j
b10110100 d
b10101 <
b10101 Y
b1001000000 e
b10010 4
b10010 \
b10010 c
b100000 _
1$
#400000
0$
#405000
b100000 j
b10111110 d
b10110 <
b10110 Y
b1001100000 e
b10011 4
b10011 \
b10011 c
b100000 _
1$
#410000
0$
#415000
b100000 j
b11001000 d
b10111 <
b10111 Y
b1010000000 e
b10100 4
b10100 \
b10100 c
b100000 _
1$
#420000
0$
#425000
b100000 j
b11010010 d
b11000 <
b11000 Y
b1010100000 e
b10101 4
b10101 \
b10101 c
b100000 _
1$
#430000
0$
#435000
b100000 j
b11011100 d
b11001 <
b11001 Y
b1011000000 e
b10110 4
b10110 \
b10110 c
b100000 _
1$
#440000
0$
#445000
b100000 j
b11100110 d
b11010 <
b11010 Y
b1011100000 e
b10111 4
b10111 \
b10111 c
b100000 _
1$
#450000
0$
#455000
b100000 j
b11110000 d
b11011 <
b11011 Y
b1100000000 e
b11000 4
b11000 \
b11000 c
b100000 _
1$
#460000
0$
#465000
b100000 j
b11111010 d
b11100 <
b11100 Y
b1100100000 e
b11001 4
b11001 \
b11001 c
b100000 _
1$
#470000
0$
#475000
b100000 j
b100000100 d
b11101 <
b11101 Y
b1101000000 e
b11010 4
b11010 \
b11010 c
b100000 _
1$
#480000
0$
#485000
b100000 j
b100001110 d
b11110 <
b11110 Y
b1101100000 e
b11011 4
b11011 \
b11011 c
b100000 _
1$
#490000
0$
#495000
b100000 j
b100011000 d
b11111 <
b11111 Y
b1110000000 e
b11100 4
b11100 \
b11100 c
b100000 _
1$
#500000
0$
#505000
b100000 j
b100100010 d
b100000 <
b100000 Y
b1110100000 e
b11101 4
b11101 \
b11101 c
b100000 _
1$
#510000
0$
#515000
b100000 j
b100101100 d
b100001 <
b100001 Y
b1111000000 e
b11110 4
b11110 \
b11110 c
b100000 _
1$
#520000
0$
#525000
b100000 j
b100110110 d
b100010 <
b100010 Y
b1111100000 e
b11111 4
b11111 \
b11111 c
b100000 _
1$
#530000
0$
#535000
b100000 j
b101000000 d
b100011 <
b100011 Y
b10000000000 e
b100000 4
b100000 \
b100000 c
b100000 _
1$
#540000
0$
#545000
b100000 j
b101001010 d
b100100 <
b100100 Y
b10000100000 e
b100001 4
b100001 \
b100001 c
b100000 _
1$
#550000
0$
#555000
b100000 j
b101010100 d
b100101 <
b100101 Y
b10001000000 e
b100010 4
b100010 \
b100010 c
b100000 _
1$
#560000
0$
#565000
b100000 j
b101011110 d
b100110 <
b100110 Y
b10001100000 e
b100011 4
b100011 \
b100011 c
b100000 _
1$
#570000
0$
#575000
b100000 j
b101101000 d
b100111 <
b100111 Y
b10010000000 e
b100100 4
b100100 \
b100100 c
b100000 _
1$
#580000
0$
#585000
b100000 j
b101110010 d
b101000 <
b101000 Y
b10010100000 e
b100101 4
b100101 \
b100101 c
b100000 _
1$
#590000
0$
#595000
b100000 j
b101111100 d
b101001 <
b101001 Y
b10011000000 e
b100110 4
b100110 \
b100110 c
b100000 _
1$
#600000
0$
#605000
b100000 j
b110000110 d
b101010 <
b101010 Y
b10011100000 e
b100111 4
b100111 \
b100111 c
b100000 _
1$
#610000
0$
#615000
b100000 j
b110010000 d
b101011 <
b101011 Y
b10100000000 e
b101000 4
b101000 \
b101000 c
b100000 _
1$
#620000
0$
#625000
b100000 j
b110011010 d
b101100 <
b101100 Y
b10100100000 e
b101001 4
b101001 \
b101001 c
b100000 _
1$
#630000
0$
#635000
b100000 j
b110100100 d
b101101 <
b101101 Y
b10101000000 e
b101010 4
b101010 \
b101010 c
b100000 _
1$
#640000
0$
#645000
b100000 j
b110101110 d
b101110 <
b101110 Y
b10101100000 e
b101011 4
b101011 \
b101011 c
b100000 _
1$
#650000
0$
#655000
b100000 j
b110111000 d
b101111 <
b101111 Y
b10110000000 e
b101100 4
b101100 \
b101100 c
b100000 _
1$
#660000
0$
#665000
b100000 j
b111000010 d
b110000 <
b110000 Y
b10110100000 e
b101101 4
b101101 \
b101101 c
b100000 _
1$
#670000
0$
#675000
b100000 j
b111001100 d
b110001 <
b110001 Y
b10111000000 e
b101110 4
b101110 \
b101110 c
b100000 _
1$
#680000
0$
#685000
b100000 j
b111010110 d
b110010 <
b110010 Y
b10111100000 e
b101111 4
b101111 \
b101111 c
b100000 _
1$
#690000
0$
#695000
b100000 j
b111100000 d
b110011 <
b110011 Y
b11000000000 e
b110000 4
b110000 \
b110000 c
b100000 _
1$
#700000
0$
#705000
b100000 j
b111101010 d
b110100 <
b110100 Y
b11000100000 e
b110001 4
b110001 \
b110001 c
b100000 _
1$
#710000
0$
#715000
b100000 j
b111110100 d
b110101 <
b110101 Y
b11001000000 e
b110010 4
b110010 \
b110010 c
b100000 _
1$
#720000
0$
#725000
b100000 j
b111111110 d
b110110 <
b110110 Y
b11001100000 e
b110011 4
b110011 \
b110011 c
b100000 _
1$
#730000
0$
#735000
b100000 j
b1000 d
b110111 <
b110111 Y
b11010000000 e
b110100 4
b110100 \
b110100 c
b100000 _
1$
#740000
0$
#745000
b100000 j
b10010 d
b111000 <
b111000 Y
b11010100000 e
b110101 4
b110101 \
b110101 c
b100000 _
1$
#750000
0$
#755000
b100000 j
b11100 d
b111001 <
b111001 Y
b11011000000 e
b110110 4
b110110 \
b110110 c
b100000 _
1$
#760000
0$
#765000
b100000 j
b100110 d
b111010 <
b111010 Y
b11011100000 e
b110111 4
b110111 \
b110111 c
b100000 _
1$
#770000
0$
#775000
b100000 j
b110000 d
b111011 <
b111011 Y
b11100000000 e
b111000 4
b111000 \
b111000 c
b100000 _
1$
#780000
0$
#785000
b100000 j
b111010 d
b111100 <
b111100 Y
b11100100000 e
b111001 4
b111001 \
b111001 c
b100000 _
1$
#790000
0$
#795000
b100000 j
b1000100 d
b111101 <
b111101 Y
b11101000000 e
b111010 4
b111010 \
b111010 c
b100000 _
1$
#800000
0$
#805000
b100000 j
b1001110 d
b111110 <
b111110 Y
b11101100000 e
b111011 4
b111011 \
b111011 c
b100000 _
1$
#810000
0$
#815000
b100000 j
b1011000 d
b111111 <
b111111 Y
b11110000000 e
b111100 4
b111100 \
b111100 c
b100000 _
1$
#820000
0$
#825000
b100000 j
b1100010 d
b1000000 <
b1000000 Y
b11110100000 e
b111101 4
b111101 \
b111101 c
b100000 _
1$
#830000
0$
#835000
b100000 j
b1101100 d
b1000001 <
b1000001 Y
b11111000000 e
b111110 4
b111110 \
b111110 c
b100000 _
1$
#840000
0$
#845000
b100000 j
b1110110 d
b1000010 <
b1000010 Y
b11111100000 e
b111111 4
b111111 \
b111111 c
b100000 _
1$
#850000
0$
#855000
b100000 j
b10000000 d
b1000011 <
b1000011 Y
b100000000000 e
b1000000 4
b1000000 \
b1000000 c
b100000 _
1$
#860000
0$
#865000
b100000 j
b10001010 d
b1000100 <
b1000100 Y
b100000100000 e
b1000001 4
b1000001 \
b1000001 c
b100000 _
1$
#870000
0$
#875000
b100000 j
b10010100 d
b1000101 <
b1000101 Y
b100001000000 e
b1000010 4
b1000010 \
b1000010 c
b100000 _
1$
#880000
0$
#885000
b100000 j
b10011110 d
b1000110 <
b1000110 Y
b100001100000 e
b1000011 4
b1000011 \
b1000011 c
b100000 _
1$
#890000
0$
#895000
b100000 j
b10101000 d
b1000111 <
b1000111 Y
b100010000000 e
b1000100 4
b1000100 \
b1000100 c
b100000 _
1$
#900000
0$
#905000
b100000 j
b10110010 d
b1001000 <
b1001000 Y
b100010100000 e
b1000101 4
b1000101 \
b1000101 c
b100000 _
1$
#910000
0$
#915000
b100000 j
b10111100 d
b10010 =
b10010 ^
b1001001 <
b1001001 Y
b100011000000 e
b1000110 4
b1000110 \
b1000110 c
b100000 _
1$
#920000
0$
#925000
b100000 j
b11000110 d
b1011011 =
b1011011 ^
b1001010 <
b1001010 Y
b100011100000 e
b1000111 4
b1000111 \
b1000111 c
b100000 _
1$
#930000
0$
#935000
b100000 j
b11010000 d
b1011001 =
b1011001 ^
b1001011 <
b1001011 Y
b100100000000 e
b1001000 4
b1001000 \
b1001000 c
b100000 _
1$
#940000
0$
#945000
b100000 j
b11011010 d
b0 =
b0 ^
b1001100 <
b1001100 Y
b100100100000 e
b1001001 4
b1001001 \
b1001001 c
b100000 _
1$
#950000
0$
#955000
b100000 j
b11100100 d
b1001101 <
b1001101 Y
b100101000000 e
b1001010 4
b1001010 \
b1001010 c
b100000 _
1$
#960000
0$
#965000
b100000 j
b11101110 d
b1001110 <
b1001110 Y
b100101100000 e
b1001011 4
b1001011 \
b1001011 c
b100000 _
1$
#970000
0$
#975000
b100000 j
b11111000 d
b1001111 <
b1001111 Y
b100110000000 e
b1001100 4
b1001100 \
b1001100 c
b100000 _
1$
#980000
0$
#985000
b100000 j
b100000010 d
b1010000 <
b1010000 Y
b100110100000 e
b1001101 4
b1001101 \
b1001101 c
b100000 _
1$
#990000
0$
#995000
b100000 j
b100001100 d
b1010001 <
b1010001 Y
b100111000000 e
b1001110 4
b1001110 \
b1001110 c
b100000 _
1$
#1000000
0$
#1005000
b100000 j
b100010110 d
b1010010 <
b1010010 Y
b100111100000 e
b1001111 4
b1001111 \
b1001111 c
b100000 _
1$
#1010000
0$
#1015000
b100000 j
b100100000 d
b1010011 <
b1010011 Y
b101000000000 e
b1010000 4
b1010000 \
b1010000 c
b100000 _
1$
#1020000
0$
#1025000
b100000 j
b100101010 d
b1010100 <
b1010100 Y
b101000100000 e
b1010001 4
b1010001 \
b1010001 c
b100000 _
1$
#1030000
0$
#1035000
b100000 j
b100110100 d
b1010101 <
b1010101 Y
b101001000000 e
b1010010 4
b1010010 \
b1010010 c
b100000 _
1$
#1040000
0$
#1045000
b100000 j
b100111110 d
b1010110 <
b1010110 Y
b101001100000 e
b1010011 4
b1010011 \
b1010011 c
b100000 _
1$
#1050000
0$
#1055000
b100000 j
b101001000 d
b1010111 <
b1010111 Y
b101010000000 e
b1010100 4
b1010100 \
b1010100 c
b100000 _
1$
#1060000
0$
#1065000
b100000 j
b101010010 d
b1011000 <
b1011000 Y
b101010100000 e
b1010101 4
b1010101 \
b1010101 c
b100000 _
1$
#1070000
0$
#1075000
b100000 j
b101011100 d
b1011001 <
b1011001 Y
b101011000000 e
b1010110 4
b1010110 \
b1010110 c
b100000 _
1$
#1080000
0$
#1085000
b100000 j
b101100110 d
b1011010 <
b1011010 Y
b101011100000 e
b1010111 4
b1010111 \
b1010111 c
b100000 _
1$
#1090000
0$
#1095000
b100000 j
b101110000 d
b1011011 <
b1011011 Y
b101100000000 e
b1011000 4
b1011000 \
b1011000 c
b100000 _
1$
#1100000
0$
#1105000
b100000 j
b101111010 d
b1011100 <
b1011100 Y
b101100100000 e
b1011001 4
b1011001 \
b1011001 c
b100000 _
1$
#1110000
0$
#1115000
b100000 j
b110000100 d
b1011101 <
b1011101 Y
b101101000000 e
b1011010 4
b1011010 \
b1011010 c
b100000 _
1$
#1120000
0$
#1125000
b100000 j
b110001110 d
b1011110 <
b1011110 Y
b101101100000 e
b1011011 4
b1011011 \
b1011011 c
b100000 _
1$
#1130000
0$
#1135000
b100000 j
b110011000 d
b1011111 <
b1011111 Y
b101110000000 e
b1011100 4
b1011100 \
b1011100 c
b100000 _
1$
#1140000
0$
#1145000
b100000 j
b110100010 d
b1100000 <
b1100000 Y
b101110100000 e
b1011101 4
b1011101 \
b1011101 c
b100000 _
1$
#1150000
0$
#1155000
b100000 j
b110101100 d
b1100001 <
b1100001 Y
b101111000000 e
b1011110 4
b1011110 \
b1011110 c
b100000 _
1$
#1160000
0$
#1165000
b100000 j
b110110110 d
b1100010 <
b1100010 Y
b101111100000 e
b1011111 4
b1011111 \
b1011111 c
b100000 _
1$
#1170000
0$
#1175000
b100000 j
b111000000 d
b1100011 <
b1100011 Y
b110000000000 e
b1100000 4
b1100000 \
b1100000 c
b100000 _
1$
#1180000
0$
#1185000
b100000 j
b111001010 d
b101 =
b101 ^
b1100100 <
b1100100 Y
b110000100000 e
b1100001 4
b1100001 \
b1100001 c
b100000 _
1$
#1190000
0$
#1195000
b100000 j
b111010100 d
b1100000 =
b1100000 ^
b1100101 <
b1100101 Y
b110001000000 e
b1100010 4
b1100010 \
b1100010 c
b100000 _
1$
#1200000
0$
#1205000
b100000 j
b111011110 d
b1111111 =
b1111111 ^
b1100110 <
b1100110 Y
b110001100000 e
b1100011 4
b1100011 \
b1100011 c
b100000 _
1$
#1210000
0$
#1215000
b100000 j
b111101000 d
b1000001 =
b1000001 ^
b1100111 <
b1100111 Y
b110010000000 e
b1100100 4
b1100100 \
b1100100 c
b100000 _
1$
#1220000
0$
#1225000
b100000 j
b111110010 d
b0 =
b0 ^
b1101000 <
b1101000 Y
b110010100000 e
b1100101 4
b1100101 \
b1100101 c
b100000 _
1$
#1230000
0$
#1235000
b100000 j
b111111100 d
b1101001 <
b1101001 Y
b110011000000 e
b1100110 4
b1100110 \
b1100110 c
b100000 _
1$
#1240000
0$
#1245000
b100000 j
b110 d
b1101010 <
b1101010 Y
b110011100000 e
b1100111 4
b1100111 \
b1100111 c
b100000 _
1$
#1250000
0$
#1255000
b100000 j
b10000 d
b1101011 <
b1101011 Y
b110100000000 e
b1101000 4
b1101000 \
b1101000 c
b100000 _
1$
#1260000
0$
#1265000
b100000 j
b11010 d
b1101100 <
b1101100 Y
b110100100000 e
b1101001 4
b1101001 \
b1101001 c
b100000 _
1$
#1270000
0$
#1275000
b100000 j
b100100 d
b1101101 <
b1101101 Y
b110101000000 e
b1101010 4
b1101010 \
b1101010 c
b100000 _
1$
#1280000
0$
#1285000
b100000 j
b101110 d
b1101110 <
b1101110 Y
b110101100000 e
b1101011 4
b1101011 \
b1101011 c
b100000 _
1$
#1290000
0$
